<?xml version="1.0" encoding="utf-8"?>
<!-- Generator: Adobe Illustrator 23.0.1, SVG Export Plug-In . SVG Version: 6.00 Build 0)  -->
<svg version="1.1" xmlns="http://www.w3.org/2000/svg" xmlns:xlink="http://www.w3.org/1999/xlink" x="0px" y="0px"
	 width="302.869px" height="278.6081px" viewBox="0 0 302.869 278.6081" style="enable-background:new 0 0 302.869 278.6081;"
	 xml:space="preserve">
<style type="text/css">
	.st0{fill:#ECF4FE;}
	.st1{fill:none;stroke:#1A2E35;stroke-miterlimit:10;}
	.st2{fill:#8FB3DC;}
	.st3{fill:#454545;}
	.st4{fill:#5691DF;}
	.st5{fill:#FF6B93;}
	.st6{fill:#F4E066;}
	.st7{fill:#E28ECE;}
	.st8{fill:#1A2E35;}
	.st9{fill:none;stroke:#1A2E35;stroke-width:2.2;stroke-linecap:round;stroke-miterlimit:10;}
	.st10{fill:#004A95;}
	.st11{fill:#FF003B;}
	.st12{fill:#FFFFFF;}
	.st13{fill:#FFD400;}
	.st14{clip-path:url(#SVGID_2_);fill:#E1EBF6;}
	.st15{fill:#BDD2EB;}
	.st16{opacity:0.5;fill:#BDD2EB;}
	.st17{opacity:0.7;fill:#ECF4FE;}
	.st18{fill:#1A2E35;stroke:#1A2E35;stroke-linecap:round;stroke-linejoin:round;stroke-miterlimit:10;}
	.st19{fill:#D7E7F4;}
	.st20{fill:none;stroke:#1A2E35;stroke-linecap:round;stroke-linejoin:round;stroke-miterlimit:10;}
	.st21{fill:none;stroke:#1A2E35;stroke-width:6;stroke-linecap:round;stroke-linejoin:round;stroke-miterlimit:10;}
	.st22{fill:#FFFFFF;stroke:#1A2E35;stroke-linecap:round;stroke-linejoin:round;stroke-miterlimit:10;}
	.st23{fill:#253139;}
	.st24{clip-path:url(#SVGID_4_);fill:#E1EBF6;}
	.st25{fill:#E9EFF8;}
	.st26{fill:#FFFFFF;stroke:#1A2E35;stroke-miterlimit:10;}
	.st27{fill:none;stroke:#000000;stroke-linecap:round;stroke-linejoin:round;stroke-miterlimit:10;}
	.st28{fill:#8FB3DD;stroke:#1A2E35;stroke-miterlimit:10;}
	.st29{fill:#685E68;}
	.st30{fill:#EDEBED;}
	.st31{fill:#C7BDC6;}
	.st32{fill:none;stroke:#1A2E35;stroke-width:3;stroke-linecap:round;stroke-miterlimit:10;}
</style>
<g id="Floor">
</g>
<g id="Car">
</g>
<g id="Character">
	<g>
		<path class="st0" d="M114.1923,9.5511c-15.2307,6.5284-30.0922,16.7785-42.5813,26.333
			c-21.7323,16.6259-41.6,36.9572-55.3793,59.7336c-16.7043,27.6111-17.0348,59.6748-6.3415,84.0096
			c5.4482,12.3988,13.9622,23.2817,25.4797,30.6969c15.0493,9.6888,33.0483,7.186,51.9232,8.0281
			c34.4518,1.5374,48.6619,36.0186,75.2318,49.6904c34.9112,17.9641,83.6204-1.4403,114.0162-34.2391
			c15.8195-17.0704,25.3504-38.3052,22.3359-58.1853c-3.1972-21.0842-20.0915-35.653-35.997-47.5155
			c-13.7371-10.2453-25.7478-22.4337-35.4187-36.3551c-9.3766-13.4978-14.6974-29.1339-22.724-43.4243
			c-13.0808-23.2887-32.0538-47.77-65.2447-45.4443C131.1727,3.4622,122.6259,5.9361,114.1923,9.5511z"/>
		<g>
			<path class="st2" d="M195.706,94.3484c0.0241,6.3972-0.3441,12.7919-1.0993,19.1866c-0.5591,4.7335-4.4593,8.3675-9.2197,8.6417
				c-22.1595,1.2715-44.319,1.2715-66.4785,0c-4.7576-0.2742-8.6579-3.9084-9.217-8.6417
				c-0.7553-6.3947-1.1236-12.7894-1.0993-19.1866c0.0162-5.6017,0.336-11.2034,0.9515-16.8051
				c0.0484-0.4355,0.0967-0.8682,0.1479-1.3009c0.559-4.7335,4.4593-8.3675,9.217-8.6392c22.1595-1.274,44.319-1.274,66.4785,0
				c4.7604,0.2714,8.6607,3.9056,9.2197,8.6392c0.0511,0.4327,0.1021,0.8656,0.1479,1.3009
				C195.3728,83.145,195.6898,88.7467,195.706,94.3484L195.706,94.3484z"/>
			<path class="st3" d="M192.706,94.3484h-87.1141c0.0162-5.6017,0.336-11.2034,0.9515-16.8051h85.2109
				C192.3728,83.145,192.6898,88.7467,192.706,94.3484L192.706,94.3484z"/>
			<path class="st4" d="M184.7128,117.2306c0.0241,6.3973-0.3441,12.7919-1.0993,19.1866
				c-0.5591,4.7335-4.4593,8.3675-9.2197,8.6417c-22.1595,1.2715-44.319,1.2715-66.4785,0
				c-4.7576-0.2742-8.6579-3.9084-9.217-8.6417c-0.7553-6.3947-1.1236-12.7894-1.0993-19.1866
				c0.0162-5.6017,0.336-11.2034,0.9515-16.8051c0.0484-0.4355,0.0967-0.8682,0.1479-1.3009
				c0.559-4.7335,4.4593-8.3675,9.217-8.6392c22.1595-1.274,44.319-1.274,66.4785,0c4.7604,0.2714,8.6607,3.9056,9.2197,8.6392
				c0.0511,0.4327,0.1021,0.8656,0.1479,1.3009C184.3796,106.0272,184.6968,111.6289,184.7128,117.2306L184.7128,117.2306z"/>
			<path class="st5" d="M120.8643,117.3325c-3.9893,0.2639-7.9787,0.2639-11.968,0c-2.3128-0.153-4.1581-1.9983-4.3111-4.3111
				c-0.2639-3.9893-0.2639-7.9786,0-11.968c0.153-2.3128,1.9983-4.1581,4.3111-4.3111c3.9893-0.2639,7.9787-0.2639,11.968,0
				c2.3128,0.153,4.1581,1.9983,4.3111,4.3111c0.2639,3.9893,0.2639,7.9786,0,11.968
				C125.0224,115.3342,123.177,117.1795,120.8643,117.3325z"/>
			<circle class="st6" cx="167.6741" cy="130.9924" r="7.7214"/>
			<circle class="st7" cx="156.8898" cy="130.9924" r="7.7214"/>
		</g>
		<path class="st8" d="M193.2281,77.3889c-0.0438-0.4189-0.093-0.8362-0.1425-1.2549l-0.0079-0.0655
			c-0.6427-5.4466-5.1035-9.6282-10.6069-9.943c-1.3571-0.0772-2.7141-0.1524-4.0712-0.2217
			c-0.8167-0.0411-1.5123,0.5865-1.5542,1.4031c-0.0417,0.8167,0.5865,1.5123,1.4031,1.5542
			c1.3512,0.0689,2.7027,0.1439,4.0535,0.2207c3.9459,0.2256,7.1653,3.1377,7.7852,6.9812h-81.8768
			c0.6197-3.8434,3.8377-6.7553,7.7818-6.9812c18.7004-1.0759,37.664-1.2387,56.364-0.4844c0.821,0.033,1.506-0.6027,1.539-1.4197
			c0.033-0.8171-0.6027-1.506-1.4195-1.539c-18.796-0.7584-37.857-0.5946-56.653,0.4868
			c-5.5008,0.3149-9.9598,4.4967-10.6025,9.9428c-0.0517,0.4386-0.0997,0.8753-0.1475,1.3123
			c-0.4274,3.8817-0.714,7.8039-0.8559,11.6798c-5.215,0.5778-9.3696,4.6469-9.9892,9.8907
			c-0.0513,0.4359-0.1001,0.8717-0.149,1.3123c-0.621,5.6524-0.9442,11.3596-0.9604,16.9613
			c-0.0243,6.4119,0.349,12.9276,1.1096,19.3659c0.6433,5.4462,5.1023,9.6293,10.6025,9.9462
			c11.0562,0.6343,22.1901,0.9515,33.3241,0.9515s22.2683-0.3172,33.3245-0.9515c5.5016-0.3168,9.9618-4.4998,10.6049-9.9462
			c0.5095-4.3135,0.8409-8.6609,0.9999-12.9885c5.2188-0.5816,9.3759-4.6522,9.9943-9.8931
			c0.7608-6.4365,1.1335-12.9526,1.1078-19.3657C194.1697,88.7102,193.8474,83.0031,193.2281,77.3889L193.2281,77.3889z
			 M171.4788,89.0073c-21.3282-1.2263-42.9451-1.2661-64.2931-0.1269c0.1259-3.2708,0.3585-6.5741,0.6921-9.8565h82.5428
			c0.467,4.5954,0.7322,9.2385,0.7898,13.8431h-11.8257C177.4384,90.6376,174.6302,89.1871,171.4788,89.0073L171.4788,89.0073z
			 M180.2323,117.2362c0.0239,6.292-0.3427,12.6869-1.0893,19.0074c-0.4745,4.0173-3.7694,7.1032-7.8344,7.3373
			c-21.9994,1.2622-44.309,1.2622-66.3086,0c-4.0636-0.2341-7.3574-3.3199-7.832-7.3373c-0.7464-6.3199-1.113-12.715-1.0891-19.0088
			c0.0158-5.4983,0.333-11.0994,0.9424-16.6454c0.0482-0.4323,0.0961-0.8619,0.1467-1.2912
			c0.4746-4.0181,3.768-7.1028,7.8318-7.3347c10.9997-0.6325,22.0768-0.9487,33.1541-0.9487s22.155,0.3162,33.1553,0.9487
			c4.0645,0.2318,7.3592,3.3166,7.834,7.3359c0.0501,0.426,0.1005,0.852,0.1465,1.2884c0.6096,5.5235,0.9266,11.1245,0.9426,16.647
			V117.2362z M183.1651,120.6039c0.0201-1.1286,0.0326-2.2557,0.0282-3.3788c-0.0162-5.6276-0.3393-11.3341-0.9596-16.954
			c-0.0462-0.4414-0.0981-0.88-0.15-1.32c-0.1299-1.1001-0.4179-2.1474-0.8362-3.1227h9.9716
			c-0.0328,5.8179-0.3932,11.7082-1.0818,17.5338C189.6974,117.0895,186.8255,120.0142,183.1651,120.6039z"/>
		<path class="st8" d="M105.4638,118.7775c0.8135,0.0989,1.5498-0.4795,1.6483-1.2912c0.0987-0.8117-0.4795-1.5496-1.2912-1.6483
			c-1.4993-0.1822-2.6592-1.4073-2.7581-2.9139c-0.259-3.9058-0.259-7.8667,0-11.7735c0.103-1.568,1.3631-2.828,2.932-2.931
			c3.9042-0.259,7.8646-0.259,11.7714,0c1.568,0.103,2.828,1.3631,2.9312,2.9318c0.259,3.9058,0.259,7.8667,0,11.7735
			c-0.103,1.5666-1.3637,2.8268-2.9308,2.931c-2.0629,0.1352-4.1545,0.2002-6.2164,0.1923c-0.002,0-0.0039,0-0.0057,0
			c-0.8151,0-1.4774,0.6591-1.4805,1.475c-0.0032,0.8176,0.6574,1.4829,1.475,1.4861c0.1141,0.0004,0.2278,0.0006,0.3419,0.0006
			c2.0192,0,4.063-0.0669,6.0808-0.1994c3.044-0.2025,5.4904-2.6493,5.6903-5.6905c0.2675-4.0359,0.2675-8.1285,0-12.1636
			c-0.2-3.0448-2.647-5.4916-5.6907-5.6915c-4.0363-0.2675-8.1283-0.2675-12.1614,0c-3.0447,0.2-5.4916,2.6468-5.6915,5.6907
			c-0.2675,4.0359-0.2675,8.1285,0,12.1634C100.3003,116.0441,102.5527,118.4237,105.4638,118.7775L105.4638,118.7775z"/>
		<path class="st8" d="M101.5005,127.7206c0,0.8176,0.6629,1.4805,1.4805,1.4805h30.6236c0.8176,0,1.4805-0.6629,1.4805-1.4805
			c0-0.8176-0.6629-1.4805-1.4805-1.4805H102.981C102.1632,126.2401,101.5005,126.903,101.5005,127.7206z"/>
		<path class="st8" d="M118.1619,133.6242H102.981c-0.8176,0-1.4805,0.6629-1.4805,1.4805s0.6629,1.4805,1.4805,1.4805h15.1809
			c0.8176,0,1.4805-0.6629,1.4805-1.4805S118.9796,133.6242,118.1619,133.6242z"/>
		<path class="st8" d="M140.4099,133.6242H125.229c-0.8176,0-1.4805,0.6629-1.4805,1.4805s0.6629,1.4805,1.4805,1.4805h15.1809
			c0.8176,0,1.4805-0.6629,1.4805-1.4805S141.2277,133.6242,140.4099,133.6242z"/>
		<path class="st8" d="M164.6747,121.7897c-1.9618,0-3.8365,0.6135-5.3988,1.7488c-1.5155-1.0982-3.3758-1.748-5.3862-1.748
			c-5.0741,0-9.202,4.1279-9.202,9.202s4.1279,9.202,9.202,9.202c2.0108,0,3.8717-0.65,5.3873-1.7488
			c1.5618,1.1347,3.4364,1.748,5.3978,1.748c5.0741,0,9.202-4.1279,9.202-9.202S169.7488,121.7897,164.6747,121.7897z
			 M147.6489,130.9924c0-3.4411,2.7996-6.2409,6.2409-6.2409s6.2409,2.7996,6.2409,6.2409s-2.7996,6.2409-6.2409,6.2409
			S147.6489,134.4335,147.6489,130.9924z M164.6747,137.2325c-1.1734,0-2.3-0.3253-3.2769-0.93
			c1.065-1.5014,1.6939-3.3332,1.6939-5.3102c0-1.9774-0.6291-3.8095-1.6945-5.3111c0.977-0.605,2.1041-0.9306,3.2777-0.9306
			c3.4413,0,6.2409,2.7996,6.2409,6.2409C170.9158,134.433,168.116,137.2325,164.6747,137.2325z"/>
		<polygon class="st8" points="105.6695,115.817 111.6708,116.0443 111.5389,119.0093 105.6708,118.7834 		"/>
	</g>
	<g id="Capa_4">
	</g>
</g>
<g id="Capa_5">
</g>
</svg>
