<?xml version="1.0" encoding="utf-8"?>
<!-- Generator: Adobe Illustrator 23.0.1, SVG Export Plug-In . SVG Version: 6.00 Build 0)  -->
<svg version="1.1" xmlns="http://www.w3.org/2000/svg" xmlns:xlink="http://www.w3.org/1999/xlink" x="0px" y="0px"
	 width="445.3034px" height="402.6514px" viewBox="0 0 445.3034 402.6514" style="enable-background:new 0 0 445.3034 402.6514;"
	 xml:space="preserve">
<style type="text/css">
	.st0{fill:#ECF4FE;}
	.st1{fill:none;stroke:#1A2E35;stroke-miterlimit:10;}
	.st2{fill:#8FB3DC;}
	.st3{fill:#454545;}
	.st4{fill:#5691DF;}
	.st5{fill:#FF6B93;}
	.st6{fill:#F4E066;}
	.st7{fill:#E28ECE;}
	.st8{fill:#1A2E35;}
	.st9{fill:none;stroke:#1A2E35;stroke-width:2.2;stroke-linecap:round;stroke-miterlimit:10;}
	.st10{fill:#004A95;}
	.st11{fill:#FF003B;}
	.st12{fill:#FFFFFF;}
	.st13{fill:#FFD400;}
	.st14{clip-path:url(#SVGID_2_);fill:#E1EBF6;}
	.st15{fill:#BDD2EB;}
	.st16{opacity:0.5;fill:#BDD2EB;}
	.st17{opacity:0.7;fill:#ECF4FE;}
	.st18{fill:#1A2E35;stroke:#1A2E35;stroke-linecap:round;stroke-linejoin:round;stroke-miterlimit:10;}
	.st19{fill:#D7E7F4;}
	.st20{fill:none;stroke:#1A2E35;stroke-linecap:round;stroke-linejoin:round;stroke-miterlimit:10;}
	.st21{fill:none;stroke:#1A2E35;stroke-width:6;stroke-linecap:round;stroke-linejoin:round;stroke-miterlimit:10;}
	.st22{fill:#FFFFFF;stroke:#1A2E35;stroke-linecap:round;stroke-linejoin:round;stroke-miterlimit:10;}
	.st23{fill:#253139;}
	.st24{clip-path:url(#SVGID_4_);fill:#E1EBF6;}
	.st25{fill:#E9EFF8;}
	.st26{fill:#FFFFFF;stroke:#1A2E35;stroke-miterlimit:10;}
	.st27{fill:none;stroke:#000000;stroke-linecap:round;stroke-linejoin:round;stroke-miterlimit:10;}
	.st28{fill:#8FB3DD;stroke:#1A2E35;stroke-miterlimit:10;}
	.st29{fill:#685E68;}
	.st30{fill:#EDEBED;}
	.st31{fill:#C7BDC6;}
	.st32{fill:none;stroke:#1A2E35;stroke-width:3;stroke-linecap:round;stroke-miterlimit:10;}
</style>
<g id="Floor">
</g>
<g id="Car">
</g>
<g id="Character">
	<g id="Capa_4">
	</g>
	<g>
		<g>
			<ellipse class="st15" cx="227.9278" cy="376.3363" rx="168.7847" ry="13.5296"/>
			<ellipse class="st16" cx="227.9278" cy="376.3363" rx="168.7847" ry="13.5296"/>
		</g>
		<g>
			<path class="st0" d="M325.4231,361.8625c0,0,52.9382-3.3086,89.3332-68.3784s29.7777-164.3289-15.4403-219.4728
				S283.5137,0.1184,216.2378,17.7646c-32.7795,8.598-54.638,30.8985-73.5275,57.7777
				c-16.4554,23.4156-34.9575,45.9893-59.8654,60.8081c-24.6621,14.6726-50.013,26.3763-62.467,54.2634
				c-30.3082,67.8665-8.1594,146.8326,63.5149,173.4545C161.0942,392.7431,290.131,377.3029,325.4231,361.8625z"/>
			<path class="st17" d="M325.4231,361.8625c0,0,52.9382-3.3086,89.3332-68.3784s29.7777-164.3289-15.4403-219.4728
				S283.5137,0.1184,216.2378,17.7646c-32.7795,8.598-54.638,30.8985-73.5275,57.7777
				c-16.4554,23.4156-34.9575,45.9893-59.8654,60.8081c-24.6621,14.6726-50.013,26.3763-62.467,54.2634
				c-30.3082,67.8665-8.1594,146.8326,63.5149,173.4545C161.0942,392.7431,290.131,377.3029,325.4231,361.8625z"/>
		</g>
		<g>
			<path id="XMLID_4_" class="st18" d="M365.4073,375.5781H185.1217c-3.7262,0-6.7468-3.0206-6.7468-6.7468V33.0917
				c0-3.7262,3.0207-6.7469,6.7469-6.7469h180.2855c3.7261,0,6.7468,3.0206,6.7468,6.7468v335.7397
				C372.1541,372.5574,369.1335,375.5781,365.4073,375.5781z"/>
			<g>
				<defs>
					<path id="XMLID_3_" d="M359.2643,375.5781H178.9787c-3.7262,0-6.7468-3.0206-6.7468-6.7468V33.0917
						c0-3.7262,3.0207-6.7469,6.7469-6.7469h180.2855c3.7262,0,6.7468,3.0206,6.7468,6.7468v335.7397
						C366.0111,372.5574,362.9905,375.5781,359.2643,375.5781z"/>
				</defs>
				<use xlink:href="#XMLID_3_"  style="overflow:visible;fill:#FFFFFF;"/>
				<clipPath id="XMLID_6_">
					<use xlink:href="#XMLID_3_"  style="overflow:visible;"/>
				</clipPath>
				
					<use xlink:href="#XMLID_3_"  style="overflow:visible;fill:none;stroke:#1A2E35;stroke-linecap:round;stroke-linejoin:round;stroke-miterlimit:10;"/>
			</g>
			<path id="XMLID_2_" class="st18" d="M353.7654,344.3613H184.4776V47.491h40.1255l4.5144,3.7456
				c1.5774,1.3088,3.5626,2.0252,5.6121,2.0252h70.7961c2.1349,0,4.1968-0.7771,5.8007-2.1862l4.0803-3.5846h38.3587V344.3613z"/>
			<path id="XMLID_1_" class="st19" d="M353.7654,344.3613H184.4776V47.491h40.1255l4.5144,3.7456
				c1.5774,1.3088,3.5626,2.0252,5.6121,2.0252h70.7961c2.1349,0,4.1968-0.7771,5.8007-2.1862l4.0803-3.5846h38.3587V344.3613z"/>
			<g>
				<line class="st20" x1="216.237" y1="280.3548" x2="322.006" y2="280.3548"/>
				<line class="st20" x1="216.237" y1="294.2718" x2="322.006" y2="294.2718"/>
				<line class="st20" x1="216.237" y1="308.1888" x2="322.006" y2="308.1888"/>
			</g>
			<g>
				<path class="st20" d="M226.0374,151.1291c-5.834,8.4416-9.2511,18.6814-9.2511,29.7194
					c0,28.9039,23.4312,52.3351,52.3351,52.3351s52.3351-23.4312,52.3351-52.3351c0-28.904-23.4312-52.3353-52.3351-52.3353
					c-3.268,0-6.466,0.2996-9.5682,0.8727"/>
				<path class="st20" d="M234.9245,141.23c-1.7621,1.5224-3.4217,3.1604-4.9668,4.9022"/>
				
					<ellipse transform="matrix(0.3918 -0.92 0.92 0.3918 -2.7142 357.5911)" class="st2" cx="269.1215" cy="180.8485" rx="44.4067" ry="44.4067"/>
				<polyline class="st21" points="248.6107,176.2547 265.4545,195.3955 293.0173,156.3483 				"/>
			</g>
			<path class="st18" d="M274.5293,353.5105c0-2.1247-1.7224-3.8471-3.8472-3.8471c-2.1246,0-3.8471,1.7224-3.8471,3.8471
				c0,2.1248,1.7224,3.8472,3.8471,3.8472C272.8068,357.3576,274.5293,355.6352,274.5293,353.5105z"/>
			<g>
				<polygon class="st22" points="115.8266,214.249 117.1257,217.0721 109.8238,221.1988 108.8422,218.9374 				"/>
				<g>
					<path class="st18" d="M127.208,222.18l-15.0964,135.024c0,0-11.0672,9.6262-10.099,13.5178
						c0.9681,3.8915,13.7519-2.275,15.5132-5.5172c1.7613-3.2421,2.6543-8.4105,2.6543-8.4105l31.7889-101.5289l24.4417,108.918
						c0,0,10.449,8.533,16.2122,8.2401c5.7632-0.2928,3.7223-2.5535,0.4289-6.7211c-3.2934-4.1676-10.7333-6.5481-10.7333-6.5481
						l-3.6654-140.3761L127.208,222.18z"/>
					
						<rect x="127.1882" y="217.6828" transform="matrix(0.9987 -0.0507 0.0507 0.9987 -11.0251 8.0272)" class="st18" width="50.7819" height="6.9248"/>
					<path class="st12" d="M158.507,220.7895c0.0871,1.7148-2.1011,3.2196-4.8875,3.3612c-2.7865,0.1416-5.116-1.1337-5.2032-2.8485
						c-0.0871-1.7147,2.1011-3.2196,4.8876-3.3612C156.0904,217.7995,158.42,219.0748,158.507,220.7895z"/>
					<polygon class="st22" points="149.8224,149.8293 130.7498,155.4207 133.1209,219.1484 177.8447,218.0317 172.1865,152.1598 
											"/>
					<polygon class="st18" points="146.3362,162.7182 150.1163,168.8821 147.0962,211.7936 154.2691,220.2889 157.9879,210.0845 
						152.2393,168.9668 155.7886,163.0083 150.6345,156.3365 					"/>
					<polygon class="st22" points="151.0136,161.9028 143.8712,167.2733 138.1541,153.3111 141.368,148.3327 158.8499,147.4445 
						162.9849,153.0125 159.585,165.7045 					"/>
					<polygon class="st22" points="142.8286,142.9619 144.4352,151.8363 151.0136,161.9028 157.0557,150.0396 156.6751,142.5473 
											"/>
					<path class="st22" d="M117.1257,217.0721l7.4284,9.7342l-2.4471,3.0134l-1.7729-0.7766l-3.5997,3.0719
						c0,0-2.6373-0.7328-2.9695-1.5827c-0.332-0.8498-3.9071-2.9794-3.9803-4.4202c-0.0733-1.4408,0.0392-4.9134,0.0392-4.9134
						L117.1257,217.0721z"/>
					<path class="st22" d="M202.6281,159.4687c0,0,0.82-2.218,0.284-3.5899c-0.5361-1.3718-1.7107-6.1313-1.4794-7.6977
						c0.2313-1.5663,2.602-3.8631,2.8096-5.8946c0.2077-2.0315-0.0419-3.8842,0.0581-4.9776s1.4561-1.9395,2.6124-0.5991
						c1.1562,1.3404,1.8474,2.7044,1.298,4.1313c-0.5494,1.4271-0.531,4.8462-0.531,4.8462s1.8394,2.5493,2.8565,4.2076
						s0.9275,6.0157,0.2389,7.7607c-0.6887,1.7451-2.6257,3.398-2.6257,3.398l0.1111,3.0101L202.6281,159.4687z"/>
					<path class="st22" d="M206.0032,143.2852c0,0-0.8123,2.3731,0.6148,2.9224c1.427,0.5494,7.2192,1.3433,7.2798-0.5254
						c0.0605-1.8685,0.1683-2.8067-0.7621-2.7594c-0.9303,0.0472-5.2877-0.0422-5.2877-0.0422S205.8245,142.8278,206.0032,143.2852z
						"/>
					<path class="st22" d="M206.6643,154.9154c0,0-0.5819,1.7661,0.4464,2.1768c1.0283,0.4109,5.2006,1.0093,5.2418-0.382
						c0.0412-1.3913,0.1177-2.0898-0.5522-2.0557c-0.6699,0.034-3.808-0.0381-3.808-0.0381S206.5351,154.5747,206.6643,154.9154z"/>
					<path class="st22" d="M205.887,151.1731c0,0-0.6739,2.0452,0.5169,2.521c1.191,0.4757,6.0227,1.1688,6.0704-0.4425
						c0.0478-1.6112,0.1364-2.4201-0.6395-2.3806c-0.7758,0.0395-4.4098-0.0441-4.4098-0.0441S205.7373,150.7785,205.887,151.1731z"
						/>
					<path class="st22" d="M205.4406,147.5111c0,0-0.8122,2.3731,0.6149,2.9225c1.427,0.5493,7.2192,1.3432,7.2797-0.5254
						c0.0606-1.8685,0.1684-2.8067-0.762-2.7595c-0.9303,0.0473-5.2877-0.0422-5.2877-0.0422S205.2619,147.0538,205.4406,147.5111z"
						/>
					<polygon class="st22" points="201.971,161.834 202.8752,158.2126 209.1272,161.9368 208.0838,165.8762 					"/>
					<g>
						<polygon class="st4" points="127.8659,213.7917 117.1879,248.1362 141.476,259.9029 144.0395,151.1441 120.5859,155.8026 
													"/>
						<polygon class="st4" points="176.9199,258.1021 199.8903,243.9342 185.7864,210.8488 187.1513,152.4206 163.3463,150.1632 
													"/>
						<polygon class="st4" points="109.7163,220.492 118.3857,214.8512 107.7491,193.1459 123.6325,181.6494 120.5859,155.8026 
							88.198,195.0059 						"/>
						<path class="st4" d="M205.015,161.5146l-5.8792,16.3948l-11.9846-25.4888l-0.6069,33.5439l9.5663,13.3581
							c2.4958,3.4849,7.9492,2.295,8.7665-1.9129l5.9058-30.4101L205.015,161.5146z"/>
					</g>
					<g>
						<path class="st22" d="M137.2486,132.5929c0,0-2.4177-2.5796-2.7376-0.6925c-0.3198,1.8872,0.6781,5.1624,2.1926,6.3329
							c1.5147,1.1703,2.8712-0.7696,2.8712-0.7696L137.2486,132.5929z"/>
						<path class="st22" d="M160.1566,131.4289c0,0,2.1438-2.8113,2.6532-0.9664c0.5096,1.845-0.1513,5.2047-1.5395,6.5224
							c-1.3881,1.3178-2.9343-0.4745-2.9343-0.4745L160.1566,131.4289z"/>
						<path class="st18" d="M138.215,135.2461l-2.3263-4.8708c0,0-2.6672-3.3983-3.7704-8.7471
							c-1.1032-5.3487,0.7489-9.8082,3.1738-11.1787c2.4249-1.3704,4.53-0.8537,4.53-0.8537s0.464-3.1418,8.0196-5.8123
							c7.5558-2.6704,15.9055,2.1021,15.7823,3.7715c-0.123,1.6692-2.1648,2.3966-2.1648,2.3966s5.9319,2.1931,3.7881,5.0044
							s-4.9938,3.9955-4.9938,3.9955s0.7483,2.4565,1.0505,4.312c0.3022,1.8556-1.3709,9.8399-1.3709,9.8399l-4.1042-11.2246
							l-12.8551,0.6531c0,0-0.7628,5.4435-2.1193,7.3833c-1.3566,1.9397-1.4165,4.8531-1.4165,4.8531
							S138.9212,136.8732,138.215,135.2461z"/>
						<g>
							<path class="st22" d="M140.5105,114.9655c0,0-0.0776,6.656-0.7384,10.0156s-2.671,4.709-2.671,4.709
								s1.6338,7.6084,3.7105,11.6603c2.0769,4.052,6.4027,7.3661,10.7464,6.9376c4.3436-0.4286,7.8335-5.387,8.2447-9.5655
								c0.4113-4.1784-1.6227-19.6657-1.6227-19.6657S144.5798,121.4108,140.5105,114.9655z"/>
							<path class="st20" d="M141.6536,130.5816c0,0,2.4314-1.4731,4.6151-0.2345"/>
							<path class="st20" d="M141.4777,127.1202c0,0,0.2673-2.3271,4.1133-2.5225"/>
							<path class="st20" d="M151.7347,124.0927c0,0,3.0182-1.3101,5.0778,1.2844"/>
							<path class="st20" d="M150.3819,127.8246c0,0,0.6191,4.5955,0.6484,5.1725c0.0293,0.5768,1.962,0.6715,1.4438,1.8546
								c-0.5183,1.1831-2.1903,2.4247-3.5853,1.5316"/>
							<path class="st20" d="M152.5554,140.2457c0,0-1.47,1.4242-4.4229,0.2247"/>
							<path class="st8" d="M155.4696,129.3012c0.0432,0.8497-0.3522,1.5603-0.8833,1.5873c-0.531,0.0269-0.9965-0.64-1.0396-1.4895
								c-0.0432-0.8497,0.3522-1.5603,0.8833-1.5873C154.961,127.7846,155.4264,128.4515,155.4696,129.3012z"/>
						</g>
					</g>
					<polygon class="st20" points="118.0267,155.2005 85.6388,194.4038 107.1571,219.8898 115.8266,214.249 105.1899,192.5438 
						121.0734,181.0472 					"/>
					<polygon class="st20" points="141.4803,150.5419 138.9169,259.3007 114.6287,247.534 125.3067,213.1895 118.0267,155.2005 
											"/>
					<path class="st20" d="M184.5921,151.8184l11.9846,25.4888l5.8792-16.3948l5.7679,5.485l-5.9058,30.41
						c-0.8172,4.2079-6.2708,5.3978-8.7665,1.9129l-9.5663-13.3581L184.5921,151.8184z"/>
					<polygon class="st20" points="160.7872,149.5611 174.3607,257.4999 197.3312,243.332 183.2272,210.2467 184.5921,151.8184 
											"/>
				</g>
			</g>
		</g>
	</g>
</g>
<g id="Capa_5">
</g>
</svg>
